<?xml version="1.0" encoding="UTF-8"?>
<svg width="500" height="430" version="1.1" viewBox="0 0 132.29 113.77" xmlns="http://www.w3.org/2000/svg">
 <g transform="matrix(.55495 0 0 -.55495 18.535 137.66)">
  <g transform="translate(-2.38 229.36)" stroke="#fff">
   <path d="m85.04-164.41c43.836 0 79.371 35.535 79.371 79.371s-35.535 79.371-79.371 79.371-79.371-35.535-79.371-79.371 35.535-79.371 79.371-79.371z" fill="none" stroke="#fff" stroke-miterlimit="10" stroke-width=".79701"/>
  </g>
  <g transform="translate(-2.38 229.36)">
   <path d="m85.04-141.73c31.311 0 56.694 25.382 56.694 56.694 0 31.311-25.382 56.694-56.694 56.694-31.311 0-56.694-25.382-56.694-56.694 0-31.311 25.382-56.694 56.694-56.694z" fill="none" stroke="#fff" stroke-miterlimit="10" stroke-width=".3985"/>
   <g transform="matrix(-.72694 .68661 -.68661 -.72694 43.151 -133.05)">
    <g transform="translate(-66.997,-84.818)">
     <g transform="matrix(1,0,0,-1,66.997,84.818)" fill="#fff" style="font-variant-caps:normal;font-variant-east-asian:normal;font-variant-ligatures:normal;font-variant-numeric:normal" aria-label="I">
      <path d="m0.39453 0c0.49017-0.035866 1.6618-0.035866 2.2117-0.035866s1.7216 0 2.2117 0.035866v-0.5619h-1.3629v-7.0776h1.3629v-0.5619c-0.49017 0.035866-1.6618 0.035866-2.2117 0.035866s-1.7216 0-2.2117-0.035866v0.5619h1.3629v7.0776h-1.3629z" style="font-variant-caps:normal;font-variant-east-asian:normal;font-variant-ligatures:normal;font-variant-numeric:normal"/>
     </g>
    </g>
   </g>
   <g transform="matrix(-.62704 .77893 -.77893 -.62704 38.719 -129.03)">
    <g transform="translate(-62.565,-88.837)">
     <g transform="matrix(1,0,0,-1,62.565,88.837)" fill="#fff" style="font-variant-caps:normal;font-variant-east-asian:normal;font-variant-ligatures:normal;font-variant-numeric:normal" aria-label="N">
      <path d="m0.46625 0c0.4543-0.035866 1.1357-0.035866 1.602-0.035866 0.50212 0 1.1238 0 1.614 0.035866v-0.56189h-0.29888c-0.21519 0-0.41843-0.011955-0.63363-0.035866-0.3467-0.035866-0.35866-0.047821-0.35866-0.31084v-6.2526l5.9537 7.0057c0.11955 0.14346 0.13151 0.15542 0.32279 0.15542 0.32279 0 0.32279-0.1076 0.32279-0.38257v-6.9101c0-0.26301 0.011955-0.27497 0.3467-0.31084 0.28692-0.035866 0.31084-0.035866 0.64558-0.035866h0.29888v-0.56189c-0.4543 0.035866-1.1357 0.035866-1.602 0.035866-0.50212 0-1.1238 0-1.614-0.035866v0.56189h0.29888c0.21519 0 0.41843 0.011955 0.63363 0.035866 0.3467 0.035866 0.35866 0.047821 0.35866 0.31084v4.8419l-4.7582-5.595c-0.13151-0.14346-0.14346-0.15542-0.39452-0.15542h-2.7377v0.56189h1.2912v6.7308c0 0.26301-0.011955 0.27497-0.3467 0.31084-0.28692 0.035866-0.31084 0.035866-0.64558 0.035866h-0.29888z" style="font-variant-caps:normal;font-variant-east-asian:normal;font-variant-ligatures:normal;font-variant-numeric:normal"/>
     </g>
    </g>
   </g>
   <g transform="matrix(-.49637 .86806 -.86806 -.49637 31.591 -119.84)">
    <g transform="translate(-55.437,-98.024)">
     <g transform="matrix(1,0,0,-1,55.437,98.024)" fill="#fff" style="font-variant-caps:normal;font-variant-east-asian:normal;font-variant-ligatures:normal;font-variant-numeric:normal" aria-label="S">
      <path d="m0.76513-0.20324c0 0.22715 0 0.33475 0.21519 0.33475 0.1076 0 0.13151-0.02391 0.22715-0.1076l0.54994-0.54994c0.78904 0.5858 1.9009 0.65754 2.391 0.65754 1.9726 0 2.7138-1.3509 2.7138-2.5584 0-1.327-0.96837-2.2954-2.0563-2.5225l-1.7335-0.37061c-0.47821-0.1076-1.1477-0.51407-1.1477-1.2433 0-0.51407 0.33475-1.2553 1.5303-1.2553 0.95642 0 2.1639 0.40648 2.4389 2.0324 0.047821 0.28692 0.047821 0.31084 0.29888 0.31084 0.28692 0 0.28692-0.059776 0.28692-0.33475v-2.1878c0-0.22715 0-0.33475-0.21519-0.33475-0.095642 0-0.1076 0.011955-0.2391 0.13151l-0.53798 0.52603c-0.6934-0.54994-1.4705-0.65754-2.0443-0.65754-1.8172 0-2.678 1.1477-2.678 2.403 0 0.77709 0.39452 1.327 0.64558 1.59 0.5858 0.5858 0.99228 0.66949 2.2954 0.95642 1.0521 0.22715 1.2553 0.26301 1.5183 0.51407 0.17933 0.17933 0.47821 0.49016 0.47821 1.0401 0 0.57385-0.31084 1.3988-1.5542 1.3988-0.9086 0-2.7258-0.2391-2.8214-2.0204-0.011955-0.21519-0.011955-0.27497-0.27497-0.27497-0.28692 0-0.28692 0.071731-0.28692 0.3467z" style="font-variant-caps:normal;font-variant-east-asian:normal;font-variant-ligatures:normal;font-variant-numeric:normal"/>
     </g>
    </g>
   </g>
   <g transform="matrix(-.36192 .93216 -.93216 -.36192 27.364 -112.44)">
    <g transform="translate(-51.21 -105.43)">
     <g transform="matrix(1 0 0 -1 51.21 105.43)" fill="#fff" style="font-variant-caps:normal;font-variant-east-asian:normal;font-variant-ligatures:normal;font-variant-numeric:normal" aria-label="T">
      <path d="m0.50212-5.1886h0.56189c0.1076-1.3509 0.22715-2.3193 1.9487-2.3193h0.92055v6.946h-1.8291v0.56189c0.64558-0.035866 1.9726-0.035866 2.678-0.035866s2.0324 0 2.678 0.035866v-0.56189h-1.8291v-6.946h0.9086c1.7096 0 1.8291 0.95642 1.9487 2.3193h0.56189l-0.25106-2.8812h-8.0458z" style="font-variant-caps:normal;font-variant-east-asian:normal;font-variant-ligatures:normal;font-variant-numeric:normal"/>
     </g>
    </g>
   </g>
   <g transform="matrix(-.24028 .97067 -.97067 -.24028 23.838 -102.82)">
    <g transform="translate(-47.684 -115.05)">
     <g transform="matrix(1 0 0 -1 47.684 115.05)" fill="#fff" style="font-variant-caps:normal;font-variant-east-asian:normal;font-variant-ligatures:normal;font-variant-numeric:normal" aria-label="I">
      <path d="m0.39452 0c0.49016-0.035865 1.6618-0.035865 2.2117-0.035865s1.7215 0 2.2117 0.035865v-0.56189h-1.3629v-7.0774h1.3629v-0.56189c-0.49016 0.035865-1.6618 0.035865-2.2117 0.035865s-1.7215 0-2.2117-0.035865v0.56189h1.3629v7.0774h-1.3629z" style="font-variant-caps:normal;font-variant-east-asian:normal;font-variant-ligatures:normal;font-variant-numeric:normal"/>
     </g>
    </g>
   </g>
   <g transform="matrix(-.11523 .99329 -.99329 -.11523 22.34 -97.094)">
    <g transform="translate(-46.186 -120.78)">
     <g transform="matrix(1 0 0 -1 46.186 120.78)" fill="#fff" style="font-variant-caps:normal;font-variant-east-asian:normal;font-variant-ligatures:normal;font-variant-numeric:normal" aria-label="T">
      <path d="m0.50212-5.1886h0.56189c0.1076-1.3509 0.22715-2.3193 1.9487-2.3193h0.92055v6.946h-1.8291v0.56189c0.64558-0.035866 1.9726-0.035866 2.678-0.035866s2.0324 0 2.678 0.035866v-0.56189h-1.8291v-6.946h0.9086c1.7096 0 1.8291 0.95642 1.9487 2.3193h0.56189l-0.25106-2.8812h-8.0458z" style="font-variant-caps:normal;font-variant-east-asian:normal;font-variant-ligatures:normal;font-variant-numeric:normal"/>
     </g>
    </g>
   </g>
   <g transform="matrix(.05583 .9984 -.9984 .05583 21.185 -86.592)">
    <g transform="translate(-45.031 -131.28)">
     <g transform="matrix(1 0 0 -1 45.031 131.28)" fill="#fff" style="font-variant-caps:normal;font-variant-east-asian:normal;font-variant-ligatures:normal;font-variant-numeric:normal" aria-label="U">
      <path d="m0.46625-7.6393h1.2912v4.8777c0 1.59 1.2912 2.8931 3.7659 2.8931 2.2715 0 3.2877-1.3987 3.2877-2.8692v-4.5549c0-0.26301 0.011955-0.27497 0.3467-0.31083 0.28692-0.035865 0.31083-0.035865 0.64558-0.035865h0.29888v-0.56189c-0.45429 0.035865-1.1357 0.035865-1.602 0.035865-0.50211 0-1.1238 0-1.6139-0.035865v0.56189h0.29888c0.21519 0 0.41843 0.011955 0.63362 0.035865 0.3467 0.035865 0.35865 0.04782 0.35865 0.31083v4.5071c0 1.7694-1.3031 2.3552-2.6062 2.3552-2.0921 0-2.1161-1.5661-2.1161-2.2356v-4.9733h1.2912v-0.56189c-0.45429 0.035865-1.6259 0.035865-2.14 0.035865s-1.6857 0-2.14-0.035865z" style="font-variant-caps:normal;font-variant-east-asian:normal;font-variant-ligatures:normal;font-variant-numeric:normal"/>
     </g>
    </g>
   </g>
   <g transform="matrix(.22752 .97372 -.97372 .22752 21.978 -75.054)">
    <g transform="translate(-45.824 -142.82)">
     <g transform="matrix(1 0 0 -1 45.824 142.82)" fill="#fff" style="font-variant-caps:normal;font-variant-east-asian:normal;font-variant-ligatures:normal;font-variant-numeric:normal" aria-label="T">
      <path d="m0.50212-5.1886h0.5619c0.1076-1.3509 0.22715-2.3193 1.9487-2.3193h0.92056v6.946h-1.8292v0.5619c0.64559-0.035866 1.9726-0.035866 2.678-0.035866 0.70536 0 2.0324 0 2.678 0.035866v-0.5619h-1.8292v-6.946h0.9086c1.7096 0 1.8292 0.95642 1.9487 2.3193h0.5619l-0.25106-2.8812h-8.0459z" style="font-variant-caps:normal;font-variant-east-asian:normal;font-variant-ligatures:normal;font-variant-numeric:normal"/>
     </g>
    </g>
   </g>
   <g transform="matrix(.38124 .92441 -.92441 .38124 24.478 -64.86)">
    <g transform="translate(-48.324 -153.01)">
     <g transform="matrix(1 0 0 -1 48.324 153.01)" fill="#fff" style="font-variant-caps:normal;font-variant-east-asian:normal;font-variant-ligatures:normal;font-variant-numeric:normal" aria-label="E">
      <path d="m0.46626 0h7.6275l0.54995-3.2758h-0.5619c-0.26302 1.6498-0.59777 2.7139-2.8095 2.7139h-1.8172v-3.3714h0.65755c1.1477 0 1.2673 0.51408 1.2673 1.3988h0.5619v-3.3595h-0.5619c0 0.8847-0.1076 1.3988-1.2673 1.3988h-0.65755v-3.0725h1.8172c1.9248 0 2.2357 0.87274 2.4269 2.3193h0.5619l-0.37062-2.8813h-7.4243v0.5619h1.2912v7.0059h-1.2912z" style="font-variant-caps:normal;font-variant-east-asian:normal;font-variant-ligatures:normal;font-variant-numeric:normal"/>
     </g>
    </g>
   </g>
   <g transform="matrix(.48738 .87314 -.87314 .48738 28.321 -56.005)"></g>
   <g transform="matrix(.55481 .83191 -.83191 .55481 30.795 -51.618)"></g>
   <g transform="matrix(.61864 .78561 -.78561 .61864 33.608 -47.44)"></g>
   <g transform="matrix(.67845 .73457 -.73457 .67845 36.739 -43.499)"></g>
   <g transform="matrix(.7666 .64206 -.64206 .7666 40.31 -39.453)">
    <g transform="translate(-64.156 -178.42)">
     <g transform="matrix(1 0 0 -1 64.156 178.42)" fill="#fff" style="font-variant-caps:normal;font-variant-east-asian:normal;font-variant-ligatures:normal;font-variant-numeric:normal" aria-label="O">
      <path d="m0.76513-4.0528c0 2.4747 1.6737 4.1843 4.3876 4.1843 2.7497 0 4.3995-1.7335 4.3995-4.1843 0-2.5823-1.7335-4.28-4.3876-4.28-2.7377 0-4.3995 1.7694-4.3995 4.28zm1.8291-0.17933c0-0.76513 0.035866-1.7813 0.56189-2.5943 0.49016-0.72927 1.2912-1.0281 1.9965-1.0281 0.76513 0 1.59 0.33475 2.0682 1.1238 0.4543 0.76513 0.50212 1.6857 0.50212 2.4986 0 0.83686-0.047821 1.9009-0.54994 2.7258-0.53798 0.87273-1.3748 1.1357-2.0204 1.1357-0.70536 0-1.5781-0.33475-2.0682-1.2433-0.39452-0.74122-0.49016-1.59-0.49016-2.6182z" style="font-variant-caps:normal;font-variant-east-asian:normal;font-variant-ligatures:normal;font-variant-numeric:normal"/>
     </g>
    </g>
   </g>
   <g transform="matrix(.86075 .50893 -.50893 .86075 49.039 -32.352)">
    <g transform="translate(-72.885 -185.52)">
     <g transform="matrix(1 0 0 -1 72.885 185.52)" fill="#fff" style="font-variant-caps:normal;font-variant-east-asian:normal;font-variant-ligatures:normal;font-variant-numeric:normal" aria-label="F">
      <path d="m0.46626 0c0.4543-0.035866 1.6618-0.035866 2.1878-0.035866 0.58581 0 1.8889 0 2.415 0.035866v-0.5619h-1.614v-3.2279h0.59776c1.1477 0 1.2553 0.51408 1.2553 1.3988h0.5619v-3.3594h-0.5619c0 0.88469-0.095642 1.3988-1.2553 1.3988h-0.59776v-3.216h1.6737c1.9248 0 2.1998 0.92056 2.3791 2.3193h0.5619l-0.37061-2.8812h-7.233v0.5619h1.2912v7.0058h-1.2912z" style="font-variant-caps:normal;font-variant-east-asian:normal;font-variant-ligatures:normal;font-variant-numeric:normal"/>
     </g>
    </g>
   </g>
   <g transform="matrix(.91328 .40727 -.40727 .91328 57.085 -27.78)"></g>
   <g transform="matrix(.94276 .3333 -.3333 .94276 61.699 -25.746)"></g>
   <g transform="matrix(.96634 .25716 -.25716 .96634 66.461 -24.086)"></g>
   <g transform="matrix(.9837 .1795 -.1795 .9837 71.339 -22.812)"></g>
   <g transform="matrix(.9987 .05032 -.05032 .9987 76.641 -21.714)">
    <g transform="translate(-100.49 -196.16)">
     <g transform="matrix(1 0 0 -1 100.49 196.16)" fill="#fff" style="font-variant-caps:normal;font-variant-east-asian:normal;font-variant-ligatures:normal;font-variant-numeric:normal" aria-label="D">
      <path d="m0.46625 0h5.1526c2.3552 0 4.1484-1.4705 4.1484-4.0289 0-2.6301-1.7933-4.1723-4.1604-4.1723h-5.1407v0.56189h1.2912v7.0774h-1.2912zm2.917-0.56189v-7.0774h1.7454c0.78904 0 1.7813 0.22715 2.3671 1.064 0.41843 0.60971 0.51407 1.4227 0.51407 2.5345 0 1.3031-0.14346 1.9367-0.52602 2.4747-0.57384 0.81295-1.6259 1.0042-2.3552 1.0042z" style="font-variant-caps:normal;font-variant-east-asian:normal;font-variant-ligatures:normal;font-variant-numeric:normal"/>
     </g>
    </g>
   </g>
   <g transform="matrix(.99654 -.08235 .08235 .99654 87.851 -21.385)">
    <g transform="translate(-111.7 -196.48)">
     <g transform="matrix(1 0 0 -1 111.7 196.48)" fill="#fff" style="font-variant-caps:normal;font-variant-east-asian:normal;font-variant-ligatures:normal;font-variant-numeric:normal" aria-label="I">
      <path d="m0.39453 0c0.49017-0.035866 1.6618-0.035866 2.2117-0.035866s1.7216 0 2.2117 0.035866v-0.5619h-1.3629v-7.0776h1.3629v-0.5619c-0.49017 0.035866-1.6618 0.035866-2.2117 0.035866s-1.7216 0-2.2117-0.035866v0.5619h1.3629v7.0776h-1.3629z" style="font-variant-caps:normal;font-variant-east-asian:normal;font-variant-ligatures:normal;font-variant-numeric:normal"/>
     </g>
    </g>
   </g>
   <g transform="matrix(.97664 -.21469 .21469 .97664 93.805 -21.767)">
    <g transform="translate(-117.65 -196.1)">
     <g transform="matrix(1 0 0 -1 117.65 196.1)" fill="#fff" style="font-variant-caps:normal;font-variant-east-asian:normal;font-variant-ligatures:normal;font-variant-numeric:normal" aria-label="A">
      <path d="m0.49016 0c0.4543-0.011955 1.0281-0.035866 1.3988-0.035866 0.46625 0 1.1357 0 1.5781 0.035866v-0.56189c-0.02391 0-1.064 0-1.064-0.15542 0-0.011955 0.035866-0.13151 0.047821-0.14346l0.59776-1.4466h3.204l0.71731 1.7455h-1.1357v0.56189c0.4543-0.035866 1.59-0.035866 2.1041-0.035866 0.47821 0 1.5303 0 1.9487 0.035866v-0.56189h-1.1597l-3.0605-7.472c-0.13151-0.31084-0.27497-0.31084-0.47821-0.31084-0.33475 0-0.38257 0.095642-0.46625 0.31084l-2.9649 7.197c-0.071731 0.17933-0.1076 0.27497-1.0162 0.27497h-0.25106zm2.7975-2.8692 1.3629-3.3235 1.3629 3.3235z" style="font-variant-caps:normal;font-variant-east-asian:normal;font-variant-ligatures:normal;font-variant-numeric:normal"/>
     </g>
    </g>
   </g>
   <g transform="matrix(.9208 -.38992 .38992 .9208 104.98 -24.328)">
    <g transform="translate(-128.83 -193.54)">
     <g transform="matrix(1 0 0 -1 128.83 193.54)" fill="#fff" style="font-variant-caps:normal;font-variant-east-asian:normal;font-variant-ligatures:normal;font-variant-numeric:normal" aria-label="G">
      <path d="m0.76513-4.1006c0 2.3791 1.7335 4.2321 4.8179 4.2321 0.39452 0 1.6259-0.02391 2.2237-0.76513 0.37061 0.32279 1.0879 0.63363 1.1716 0.63363 0.16737 0 0.16737-0.15542 0.16737-0.33475v-2.403h0.95642v-0.56189c-0.41843 0.035866-1.4585 0.035866-1.9248 0.035866-0.6934 0-1.8052 0-2.4508-0.035866v0.56189h1.7215v1.2075c0 0.22715 0 0.57385-0.46625 0.84882-0.31084 0.17933-0.6934 0.25106-1.076 0.25106-1.0281 0-2.0563-0.3467-2.6421-1.0879-0.51407-0.65754-0.66949-1.5064-0.66949-2.5943 0-1.339 0.2391-2.0324 0.68145-2.6182 0.47821-0.59776 1.3988-1.0401 2.5465-1.0401 1.2792 0 2.415 0.9086 2.678 2.4269 0.035866 0.22715 0.047821 0.25106 0.32279 0.25106 0.31084 0 0.32279-0.02391 0.32279-0.33475v-2.5704c0-0.22715 0-0.33475-0.21519-0.33475-0.1076 0-0.13151 0.02391-0.22715 0.1076l-0.78904 0.70536c-0.87273-0.6934-1.7335-0.81295-2.3552-0.81295-2.941 0-4.794 1.7574-4.794 4.2321z" style="font-variant-caps:normal;font-variant-east-asian:normal;font-variant-ligatures:normal;font-variant-numeric:normal"/>
     </g>
    </g>
   </g>
   <g transform="matrix(.83492 -.55028 .55028 .83492 115.85 -29.086)">
    <g transform="translate(-139.69 -188.78)">
     <g transform="matrix(1 0 0 -1 139.69 188.78)" fill="#fff" style="font-variant-caps:normal;font-variant-east-asian:normal;font-variant-ligatures:normal;font-variant-numeric:normal" aria-label="R">
      <path d="m0.46626 0c0.43039-0.035866 1.602-0.035866 2.1041-0.035866s1.6737 0 2.1041 0.035866v-0.5619h-1.2912v-3.3236h1.3988c0.16737 0 0.69341 0 1.064 0.40648 0.38257 0.41844 0.38257 0.64559 0.38257 1.5183 0 0.78905 0 1.3749 0.83687 1.7813 0.52603 0.26302 1.2673 0.31084 1.7574 0.31084 1.2792 0 1.4346-1.076 1.4346-1.2673 0-0.26302-0.16738-0.26302-0.28693-0.26302-0.25106 0-0.26302 0.11955-0.27497 0.27497-0.059776 0.5619-0.40648 0.82492-0.76514 0.82492-0.71732 0-0.82492-0.84883-0.88469-1.3509-0.023911-0.13151-0.11955-0.95642-0.13151-1.0162-0.16737-0.83687-0.82492-1.2075-1.339-1.3988 1.3868-0.35866 1.9965-1.1358 1.9965-1.9248 0-1.2075-1.3151-2.2117-3.5627-2.2117h-4.543v0.5619h1.2912v7.0775h-1.2912zm2.9171-4.3159v-3.3236h1.4107c1.9248 0 1.9487 0.93251 1.9487 1.6618 0 0.6695 0 1.6618-1.9726 1.6618z" style="font-variant-caps:normal;font-variant-east-asian:normal;font-variant-ligatures:normal;font-variant-numeric:normal"/>
     </g>
    </g>
   </g>
   <g transform="matrix(.72478 -.6889 .6889 .72478 125.22 -35.388)">
    <g transform="translate(-149.06 -182.48)">
     <g transform="matrix(1 0 0 -1 149.06 182.48)" fill="#fff" style="font-variant-caps:normal;font-variant-east-asian:normal;font-variant-ligatures:normal;font-variant-numeric:normal" aria-label="A">
      <path d="m0.49017 0c0.4543-0.011955 1.0282-0.035866 1.3988-0.035866 0.46626 0 1.1358 0 1.5781 0.035866v-0.5619c-0.023911 0-1.064 0-1.064-0.15542 0-0.011955 0.035866-0.13151 0.047821-0.14346l0.59777-1.4466h3.204l0.71732 1.7455h-1.1358v0.5619c0.4543-0.035866 1.5901-0.035866 2.1041-0.035866 0.47821 0 1.5303 0 1.9487 0.035866v-0.5619h-1.1597l-3.0606-7.4721c-0.13151-0.31084-0.27497-0.31084-0.47821-0.31084-0.33475 0-0.38257 0.095642-0.46626 0.31084l-2.9649 7.1971c-0.071732 0.17933-0.1076 0.27497-1.0162 0.27497h-0.25106zm2.7975-2.8693 1.3629-3.3236 1.3629 3.3236z" style="font-variant-caps:normal;font-variant-east-asian:normal;font-variant-ligatures:normal;font-variant-numeric:normal"/>
     </g>
    </g>
   </g>
   <g transform="matrix(.5726 -.8198 .8198 .5726 133.62 -43.391)">
    <g transform="translate(-157.46 -174.48)">
     <g transform="matrix(1 0 0 -1 157.46 174.48)" fill="#fff" style="font-variant-caps:normal;font-variant-east-asian:normal;font-variant-ligatures:normal;font-variant-numeric:normal" aria-label="M">
      <path d="m0.4782 0c0.45429-0.035865 1.1357-0.035865 1.602-0.035865 0.50211 0 1.1238 0 1.6139 0.035865v-0.56188h-0.29888c-0.21519 0-0.41842-0.011955-0.63362-0.035865-0.3467-0.035865-0.35865-0.04782-0.35865-0.31083v-6.5753h0.011955l3.2518 7.185c0.1076 0.2391 0.25106 0.29888 0.38256 0.29888 0.2391 0 0.33474-0.17932 0.38256-0.28692l3.3354-7.3523h0.011955v7.0774h-1.2911v0.56188c0.43038-0.035865 1.5422-0.035865 2.0324-0.035865s1.6139 0 2.0443 0.035865v-0.56188h-1.2911v-7.0774h1.2911v-0.56188h-2.6421c-0.26301 0-0.39452 0-0.52602 0.29888l-2.8692 6.3242-2.8692-6.3242c-0.1315-0.29888-0.26301-0.29888-0.52602-0.29888h-2.654v0.56188h1.2911v6.7307c0 0.26301-0.011955 0.27496-0.3467 0.31083-0.28692 0.035865-0.31083 0.035865-0.64557 0.035865h-0.29888z" style="font-variant-caps:normal;font-variant-east-asian:normal;font-variant-ligatures:normal;font-variant-numeric:normal"/>
     </g>
    </g>
   </g>
   <g transform="matrix(.44171 -.89711 .89711 .44171 141.2 -54.937)"></g>
   <g transform="matrix(.369 -.92937 .92937 .369 143.4 -59.47)"></g>
   <g transform="matrix(.29382 -.95583 .95583 .29382 145.25 -64.166)"></g>
   <g transform="matrix(.21678 -.97615 .97615 .21678 146.71 -68.992)"></g>
   <g transform="matrix(.11256 -.99359 .99359 .11256 147.88 -74.089)">
    <g transform="translate(-171.72 -143.78)">
     <g transform="matrix(1 0 0 -1 171.72 143.78)" fill="#fff" style="font-variant-caps:normal;font-variant-east-asian:normal;font-variant-ligatures:normal;font-variant-numeric:normal" aria-label="S">
      <path d="m0.76514-0.20324c0 0.22715 0 0.33475 0.2152 0.33475 0.1076 0 0.13151-0.023911 0.22715-0.1076l0.54994-0.54994c0.78905 0.58581 1.9009 0.65754 2.3911 0.65754 1.9726 0 2.7139-1.3509 2.7139-2.5584 0-1.327-0.96838-2.2954-2.0563-2.5226l-1.7335-0.37061c-0.47821-0.1076-1.1477-0.51408-1.1477-1.2434 0-0.51408 0.33475-1.2553 1.5303-1.2553 0.95642 0 2.1639 0.40648 2.4389 2.0324 0.047821 0.28693 0.047821 0.31084 0.29888 0.31084 0.28693 0 0.28693-0.059776 0.28693-0.33475v-2.1878c0-0.22715 0-0.33475-0.2152-0.33475-0.095642 0-0.1076 0.011955-0.23911 0.13151l-0.53799 0.52603c-0.69341-0.54994-1.4705-0.65754-2.0444-0.65754-1.8172 0-2.678 1.1477-2.678 2.403 0 0.77709 0.39452 1.327 0.64559 1.5901 0.58581 0.58581 0.99229 0.6695 2.2954 0.95642 1.0521 0.22715 1.2553 0.26302 1.5183 0.51408 0.17933 0.17933 0.47821 0.49017 0.47821 1.0401 0 0.57385-0.31084 1.3988-1.5542 1.3988-0.9086 0-2.7258-0.23911-2.8215-2.0204-0.011955-0.2152-0.011955-0.27497-0.27497-0.27497-0.28693 0-0.28693 0.071732-0.28693 0.3467z" style="font-variant-caps:normal;font-variant-east-asian:normal;font-variant-ligatures:normal;font-variant-numeric:normal"/>
     </g>
    </g>
   </g>
   <g transform="matrix(-.03348 -.99942 .99942 -.03348 148.83 -82.533)">
    <g transform="translate(-172.67 -135.34)">
     <g transform="matrix(1 0 0 -1 172.67 135.34)" fill="#fff" style="font-variant-caps:normal;font-variant-east-asian:normal;font-variant-ligatures:normal;font-variant-numeric:normal" aria-label="T">
      <path d="m0.50211-5.1884h0.56188c0.10759-1.3509 0.22714-2.3193 1.9486-2.3193h0.92053v6.9458h-1.8291v0.56188c0.64556-0.035865 1.9726-0.035865 2.6779-0.035865s2.0323 0 2.6779 0.035865v-0.56188h-1.8291v-6.9458h0.90857c1.7096 0 1.8291 0.95639 1.9486 2.3193h0.56188l-0.25105-2.8811h-8.0456z" style="font-variant-caps:normal;font-variant-east-asian:normal;font-variant-ligatures:normal;font-variant-numeric:normal"/>
     </g>
    </g>
   </g>
   <g transform="matrix(-.20529 -.97867 .97867 -.20529 148.41 -93.112)">
    <g transform="translate(-172.26 -124.76)">
     <g transform="matrix(1 0 0 -1 172.26 124.76)" fill="#fff" style="font-variant-caps:normal;font-variant-east-asian:normal;font-variant-ligatures:normal;font-variant-numeric:normal" aria-label="U">
      <path d="m0.46624-7.6392h1.2911v4.8776c0 1.59 1.2911 2.8931 3.7658 2.8931 2.2714 0 3.2876-1.3987 3.2876-2.8692v-4.5549c0-0.26301 0.011955-0.27496 0.3467-0.31083 0.28692-0.035865 0.31083-0.035865 0.64557-0.035865h0.29888v-0.56188c-0.45429 0.035865-1.1357 0.035865-1.602 0.035865-0.50211 0-1.1238 0-1.6139-0.035865v0.56188h0.29888c0.21519 0 0.41842 0.011955 0.63362 0.035865 0.34669 0.035865 0.35865 0.04782 0.35865 0.31083v4.507c0 1.7693-1.3031 2.3551-2.6062 2.3551-2.0921 0-2.116-1.5661-2.116-2.2356v-4.9733h1.2911v-0.56188c-0.45429 0.035865-1.6259 0.035865-2.1399 0.035865s-1.6857 0-2.1399-0.035865z" style="font-variant-caps:normal;font-variant-east-asian:normal;font-variant-ligatures:normal;font-variant-numeric:normal"/>
     </g>
    </g>
   </g>
   <g transform="matrix(-.38036 -.92477 .92477 -.38036 145.9 -104.48)">
    <g transform="translate(-169.75 -113.39)">
     <g transform="matrix(1 0 0 -1 169.75 113.39)" fill="#fff" style="font-variant-caps:normal;font-variant-east-asian:normal;font-variant-ligatures:normal;font-variant-numeric:normal" aria-label="D">
      <path d="m0.46626 0h5.1528c2.3552 0 4.1485-1.4705 4.1485-4.029 0-2.6302-1.7933-4.1724-4.1605-4.1724h-5.1408v0.5619h1.2912v7.0776h-1.2912zm2.9171-0.5619v-7.0776h1.7455c0.78906 0 1.7814 0.22715 2.3672 1.064 0.41844 0.60973 0.51408 1.4227 0.51408 2.5345 0 1.3031-0.14346 1.9368-0.52604 2.4748-0.57386 0.81297-1.6259 1.0043-2.3552 1.0043z" style="font-variant-caps:normal;font-variant-east-asian:normal;font-variant-ligatures:normal;font-variant-numeric:normal"/>
     </g>
    </g>
   </g>
   <g transform="matrix(-.50192 -.86488 .86488 -.50192 141.4 -114.79)">
    <g transform="translate(-165.24 -103.08)">
     <g transform="matrix(1 0 0 -1 165.24 103.08)" fill="#fff" style="font-variant-caps:normal;font-variant-east-asian:normal;font-variant-ligatures:normal;font-variant-numeric:normal" aria-label="I">
      <path d="m0.39452 0c0.49015-0.035865 1.6617-0.035865 2.2117-0.035865s1.7215 0 2.2117 0.035865v-0.56188h-1.3629v-7.0774h1.3629v-0.56188c-0.49016 0.035865-1.6617 0.035865-2.2117 0.035865s-1.7215 0-2.2117-0.035865v0.56188h1.3629v7.0774h-1.3629z" style="font-variant-caps:normal;font-variant-east-asian:normal;font-variant-ligatures:normal;font-variant-numeric:normal"/>
     </g>
    </g>
   </g>
   <g transform="matrix(-.60333 -.79745 .79745 -.60333 138.5 -119.9)">
    <g transform="translate(-162.35 -97.968)">
     <g transform="matrix(1 0 0 -1 162.35 97.968)" fill="#fff" style="font-variant-caps:normal;font-variant-east-asian:normal;font-variant-ligatures:normal;font-variant-numeric:normal" aria-label="E">
      <path d="m0.46625 0h7.6274l0.54993-3.2757h-0.56189c-0.26301 1.6498-0.59776 2.7138-2.8094 2.7138h-1.8172v-3.3713h0.65753c1.1477 0 1.2672 0.51407 1.2672 1.3987h0.56189v-3.3594h-0.56189c0 0.88468-0.1076 1.3987-1.2672 1.3987h-0.65753v-3.0725h1.8172c1.9248 0 2.2356 0.87272 2.4269 2.3193h0.56189l-0.37061-2.8812h-7.4241v0.56189h1.2912v7.0057h-1.2912z" style="font-variant-caps:normal;font-variant-east-asian:normal;font-variant-ligatures:normal;font-variant-numeric:normal"/>
     </g>
    </g>
   </g>
   <g transform="matrix(-.71082 -.70331 .70331 -.71082 132.47 -127.67)">
    <g transform="translate(-156.32 -90.199)">
     <g transform="matrix(1 0 0 -1 156.32 90.199)" fill="#fff" style="font-variant-caps:normal;font-variant-east-asian:normal;font-variant-ligatures:normal;font-variant-numeric:normal" aria-label="S">
      <path d="m0.76513-0.20324c0 0.22715 0 0.33475 0.21519 0.33475 0.1076 0 0.13151-0.02391 0.22715-0.1076l0.54994-0.54994c0.78904 0.5858 1.9009 0.65754 2.391 0.65754 1.9726 0 2.7138-1.3509 2.7138-2.5584 0-1.327-0.96837-2.2954-2.0563-2.5225l-1.7335-0.37061c-0.47821-0.1076-1.1477-0.51407-1.1477-1.2433 0-0.51407 0.33475-1.2553 1.5303-1.2553 0.95642 0 2.1639 0.40648 2.4389 2.0324 0.047821 0.28692 0.047821 0.31084 0.29888 0.31084 0.28692 0 0.28692-0.059776 0.28692-0.33475v-2.1878c0-0.22715 0-0.33475-0.21519-0.33475-0.095642 0-0.1076 0.011955-0.2391 0.13151l-0.53798 0.52603c-0.6934-0.54994-1.4705-0.65754-2.0443-0.65754-1.8172 0-2.678 1.1477-2.678 2.403 0 0.77709 0.39452 1.327 0.64558 1.59 0.5858 0.5858 0.99228 0.66949 2.2954 0.95642 1.0521 0.22715 1.2553 0.26301 1.5183 0.51407 0.17933 0.17933 0.47821 0.49016 0.47821 1.0401 0 0.57385-0.31084 1.3988-1.5542 1.3988-0.9086 0-2.7258-0.2391-2.8214-2.0204-0.011955-0.21519-0.011955-0.27497-0.27497-0.27497-0.28692 0-0.28692 0.071731-0.28692 0.3467z" style="font-variant-caps:normal;font-variant-east-asian:normal;font-variant-ligatures:normal;font-variant-numeric:normal"/>
     </g>
    </g>
   </g>
  </g>
  <g transform="translate(-2.38 229.36)">
   <path d="m85.04-117.56" fill="none" stroke="#fff" stroke-miterlimit="10" stroke-width=".59776"/>
   <path d="m85.04-117.56c-5.4371 0-9.8446 3.9942-9.8446 8.9215 0 4.9273 4.4075 8.9215 9.8446 8.9215s9.8446-3.9942 9.8446-8.9215c0-4.9273-4.4075-8.9215-9.8446-8.9215" fill="none" stroke="#fff" stroke-dasharray="2.98883, 2.98883" stroke-miterlimit="10" stroke-width=".3985"/>
   <path d="m85.04-131.48" fill="none" stroke="#fff" stroke-miterlimit="10" stroke-width=".59776"/>
   <path d="m85.04-131.48c-15.656 0-28.347 11.502-28.347 25.691 0 14.189 12.691 25.691 28.347 25.691s28.347-11.502 28.347-25.691c0-14.189-12.691-25.691-28.347-25.691" fill="none" stroke="#fff" stroke-dasharray="2.98883, 2.98883" stroke-miterlimit="10" stroke-width=".3985"/>
   <path d="m85.04-139.8" fill="none" stroke="#fff" stroke-miterlimit="10" stroke-width=".59776"/>
   <path d="m85.04-139.8c-23.986 0-43.429 17.622-43.429 39.36s19.444 39.36 43.429 39.36 43.429-17.622 43.429-39.36-19.444-39.36-43.429-39.36" fill="none" stroke="#fff" stroke-dasharray="2.98883, 2.98883" stroke-miterlimit="10" stroke-width=".3985"/>
   <path d="m118.35-130.92c-19.464-14.132-47.149-14.132-66.613 0" fill="none" stroke="#fff" stroke-miterlimit="10" stroke-width=".59776"/>
   <path d="m51.734-130.92c-22.961 16.671-26.663 47.056-8.2689 67.866s51.921 24.165 74.882 7.4942c14.851-10.783 22.231-27.934 19.353-44.982-2.0193-11.963-8.9322-22.813-19.353-30.378" fill="none" stroke="#fff" stroke-dasharray="2.98883, 2.98883" stroke-miterlimit="10" stroke-width=".3985"/>
   <path d="m141.73-85.04c0-28.378-25.382-51.382-56.694-51.382-31.311 0-56.694 23.004-56.694 51.382" fill="none" stroke="#fff" stroke-miterlimit="10" stroke-width=".59776"/>
   <path d="m28.347-85.04c0 28.378 25.382 51.382 56.694 51.382 31.311 0 56.694-23.004 56.694-51.382" fill="none" stroke="#fff" stroke-dasharray="2.98883, 2.98883" stroke-miterlimit="10" stroke-width=".3985"/>
   <path d="m118.35-39.165c22.961-16.671 26.663-47.056 8.2689-67.866-18.394-20.81-51.921-24.165-74.882-7.4942-14.851 10.783-22.231 27.934-19.353 44.982 2.0192 11.963 8.9322 22.813 19.353 30.378" fill="none" stroke="#fff" stroke-miterlimit="10" stroke-width=".59776"/>
   <path d="m51.734-39.165c19.464 14.132 47.149 14.132 66.613 0" fill="none" stroke="#fff" stroke-dasharray="2.98883, 2.98883" stroke-miterlimit="10" stroke-width=".3985"/>
   <path d="m85.04-30.279c23.986 0 43.429-17.622 43.429-39.36s-19.444-39.36-43.429-39.36-43.429 17.622-43.429 39.36 19.444 39.36 43.429 39.36" fill="none" stroke="#fff" stroke-miterlimit="10" stroke-width=".59776"/>
   <path d="m85.04-30.279" fill="none" stroke="#fff" stroke-dasharray="2.98883, 2.98883" stroke-miterlimit="10" stroke-width=".3985"/>
   <path d="m85.04-38.6c15.656 0 28.347-11.502 28.347-25.691 0-14.189-12.691-25.691-28.347-25.691s-28.347 11.502-28.347 25.691c0 14.189 12.691 25.691 28.347 25.691" fill="none" stroke="#fff" stroke-miterlimit="10" stroke-width=".59776"/>
   <path d="m85.04-38.6" fill="none" stroke="#fff" stroke-dasharray="2.98883, 2.98883" stroke-miterlimit="10" stroke-width=".3985"/>
   <path d="m85.04-52.523c5.4371 0 9.8446-3.9942 9.8446-8.9215s-4.4075-8.9215-9.8446-8.9215-9.8446 3.9942-9.8446 8.9215 4.4075 8.9215 9.8446 8.9215" fill="none" stroke="#fff" stroke-miterlimit="10" stroke-width=".59776"/>
   <path d="m85.04-52.523" fill="none" stroke="#fff" stroke-dasharray="2.98883, 2.98883" stroke-miterlimit="10" stroke-width=".3985"/>
   <path d="m141.47-90.486c1.2651 13.121-22.972 26.196-54.137 29.203-31.164 3.0075-57.455-5.1907-58.72-18.312" fill="none" stroke="#fff" stroke-miterlimit="10" stroke-width=".59776"/>
   <path d="m28.612-79.595c-1.2651-13.121 22.972-26.196 54.137-29.203 31.164-3.0074 57.455 5.1908 58.72 18.312" fill="none" stroke="#fff" stroke-dasharray="2.98883, 2.98883" stroke-miterlimit="10" stroke-width=".3985"/>
   <path d="m135.45-110.98c5.485 10.665-12.637 30.922-40.479 45.246-27.842 14.324-54.859 17.292-60.344 6.6272" fill="none" stroke="#fff" stroke-miterlimit="10" stroke-width=".59776"/>
   <path d="m34.629-59.104c-5.485-10.665 12.637-30.922 40.479-45.246 27.842-14.324 54.859-17.292 60.344-6.6272" fill="none" stroke="#fff" stroke-dasharray="2.98883, 2.98883" stroke-miterlimit="10" stroke-width=".3985"/>
   <path d="m123.11-127.05c6.9324 6.2839-4.493 30.185-25.519 53.384-21.026 23.199-43.691 36.912-50.623 30.628" fill="none" stroke="#fff" stroke-miterlimit="10" stroke-width=".59776"/>
   <path d="m46.969-43.034c-6.9324-6.2839 4.493-30.185 25.519-53.384 21.026-23.199 43.691-36.912 50.623-30.628" fill="none" stroke="#fff" stroke-dasharray="2.98883, 2.98883" stroke-miterlimit="10" stroke-width=".3985"/>
   <path d="m107.11-137.26c5.1506 2.1782-0.55463 27.323-12.743 56.163-12.189 28.84-26.245 50.454-31.396 48.276" fill="none" stroke="#fff" stroke-miterlimit="10" stroke-width=".59776"/>
   <path d="m62.971-32.821c-5.1506-2.1782 0.55462-27.323 12.743-56.163 12.189-28.84 26.245-50.454 31.396-48.276" fill="none" stroke="#fff" stroke-dasharray="2.98883, 2.98883" stroke-miterlimit="10" stroke-width=".3985"/>
   <path d="m89.522-141.55c1.1496 0.0925 0.07515 25.47-2.3998 56.681-2.4749 31.212-5.4132 56.439-6.5628 56.346" fill="none" stroke="#fff" stroke-miterlimit="10" stroke-width=".59776"/>
   <path d="m80.559-28.527c-1.1496-0.09245-0.07517-25.47 2.3998-56.681 2.4749-31.212 5.4132-56.439 6.5628-56.346" fill="none" stroke="#fff" stroke-dasharray="2.98883, 2.98883" stroke-miterlimit="10" stroke-width=".3985"/>
   <path d="m71.662-140.13c-3.3278 0.8089-0.03583 26.129 7.3528 56.554 7.3886 30.425 16.076 54.434 19.404 53.625" fill="none" stroke="#fff" stroke-miterlimit="10" stroke-width=".59776"/>
   <path d="m98.419-29.951c3.3278-0.8089 0.03581-26.129-7.3528-56.554-7.3886-30.425-16.076-54.434-19.404-53.625" fill="none" stroke="#fff" stroke-dasharray="2.98883, 2.98883" stroke-miterlimit="10" stroke-width=".3985"/>
   <path d="m54.664-132.91c-6.4078 4.0675 1.9976 28.795 18.774 55.231s35.571 44.569 41.979 40.502" fill="none" stroke="#fff" stroke-miterlimit="10" stroke-width=".59776"/>
   <path d="m115.42-37.174c6.4078-4.0675-1.9976-28.795-18.774-55.231-16.777-26.436-35.571-44.569-41.979-40.502" fill="none" stroke="#fff" stroke-dasharray="2.98883, 2.98883" stroke-miterlimit="10" stroke-width=".3985"/>
   <path d="m40.178-119.7c-6.6257 8.5786 8.0876 31.05 32.865 50.192 24.777 19.142 50.235 27.706 56.86 19.128" fill="none" stroke="#fff" stroke-miterlimit="10" stroke-width=".59776"/>
   <path d="m129.9-50.381c6.6257-8.5786-8.0876-31.05-32.865-50.192-24.777-19.142-50.235-27.706-56.86-19.128" fill="none" stroke="#fff" stroke-dasharray="2.98883, 2.98883" stroke-miterlimit="10" stroke-width=".3985"/>
   <path d="m30.674-101.11c-3.6223 12.258 17.782 29.39 47.807 38.266 30.026 8.876 57.304 6.1352 60.926-6.1223" fill="none" stroke="#fff" stroke-miterlimit="10" stroke-width=".59776"/>
   <path d="m139.41-68.968c3.6223-12.258-17.782-29.39-47.807-38.266-30.026-8.876-57.304-6.1352-60.926 6.1223" fill="none" stroke="#fff" stroke-dasharray="2.98883, 2.98883" stroke-miterlimit="10" stroke-width=".3985"/>
  </g>
 </g>
</svg>
